^G:\WORK\SVNGRAYMATTERS\GOALMANAGEMENT\CCLABELS\MYGOALS.RESX|G:\WORK\SVNGRAYMATTERS\GOALMANAGEMENT\CCLABELS\STUDENTGOALS.RESX
G:\WORK\SVNGRAYMATTERS\GOALMANAGEMENT\CCLABELS\OBJ\DEBUG\TELERIKREPORTING.MYGOALS.RESOURCES
G:\WORK\SVNGRAYMATTERS\GOALMANAGEMENT\CCLABELS\OBJ\DEBUG\TELERIKREPORTING.STUDENTGOALS.RESOURCES
